<svg width="23" height="23" viewBox="0 0 23 23" fill="none" xmlns="http://www.w3.org/2000/svg">
<path fill-rule="evenodd" clip-rule="evenodd" d="M12.2565 11.3137L16.4992 15.5564L15.5564 16.4992L11.3137 12.2565L7.07108 16.4992L6.12827 15.5564L10.3709 11.3137L6.12827 7.07107L7.07108 6.12826L11.3137 10.3709L15.5564 6.12826L16.4992 7.07107L12.2565 11.3137Z" fill="#8CA4AF"/>
</svg>
