<svg width="20" height="20" viewBox="0 0 20 20" fill="none" xmlns="http://www.w3.org/2000/svg">
<path fill-rule="evenodd" clip-rule="evenodd" d="M11.1192 5.45299L12.3067 6.62244L7.04153 11.9689C6.77733 12.2385 6.77733 12.6725 7.04153 12.9422C7.29223 13.1981 7.71104 13.1969 7.95907 12.9408L13.7519 7.05611C14.5976 6.19308 14.5976 4.80707 13.7519 3.94405C12.945 3.12063 11.5174 3.13895 10.7266 3.94561L4.40386 10.3641C2.97636 11.8203 2.97636 14.1586 4.40386 15.6148C5.79004 17.0288 8.17128 17.0057 9.53581 15.6134L16.91 8.12408L18.0976 9.29343L10.7248 16.7814C8.71318 18.8339 5.25848 18.8674 3.21369 16.7815C1.15086 14.6772 1.15086 11.3016 3.21511 9.1959L9.53785 2.77744C10.974 1.31238 13.4751 1.28029 14.9423 2.77756C16.423 4.28861 16.423 6.71154 14.941 8.22395L9.15163 14.1051C8.25607 15.03 6.75787 15.0342 5.85103 14.1086C4.95195 13.1909 4.95195 11.7202 5.85253 10.801L11.1192 5.45299Z" fill="#0FC0F8"/>
</svg>
